{
  "tags": ["ou-snippet"],
  "hidden": true,
  "context": {
    "cards": [
      {
        "background_color": "_white",
        "content": "Lorem, ipsum dolor sit amet consectetur adipisicing elit. Vero praesentium quaerat consequatur deleniti nobis."
      },
      {
        "background_color": "_purple",
        "content": "Lorem, ipsum dolor sit amet consectetur adipisicing elit. Vero praesentium quaerat consequatur deleniti nobis."
      },
      {
        "background_color": "_light-grey",
        "content": "Lorem, ipsum dolor sit amet consectetur adipisicing elit. Vero praesentium quaerat consequatur deleniti nobis."
      },
      {
        "background_color": "_dark-grey",
        "content": "Lorem, ipsum dolor sit amet consectetur adipisicing elit. Vero praesentium quaerat consequatur deleniti nobis."
      }
    ]
  }
}
