{
  "tags": ["ou-component"],
  "status": "complete",
  "meta": {
    "scripts": ["https://assets.tcu.edu/js/libs/flickity.pkgd.min.js"]
  },
  "context": {
    "title": "What Makes Us Different",
    "facts": [
      {
        "icon": "https://assets.tcu.edu/cornerstone/images/icons/teacher.svg",
        "text": "<strong>100%</strong> teacher placement"
      },
      {
        "icon": "https://assets.tcu.edu/cornerstone/images/icons/marker.svg",
        "text": "<strong>80%</strong> of graduates teach locally"
      },
      {
        "icon": "https://assets.tcu.edu/cornerstone/images/icons/school.svg",
        "text": "<strong>2</strong> special education lab schools"
      },
      {
        "icon": "https://assets.tcu.edu/cornerstone/images/icons/ribbon.svg",
        "text": "<strong>12</strong> nationally ranked graduate programs"
      }
    ]
  },
  "variants": [
    {
      "name": "large",
      "context": {
        "facts": [
          {
            "icon": "https://assets.tcu.edu/cornerstone/images/icons/teacher.svg",
            "text": "<strong>100%</strong> teacher placement"
          },
          {
            "icon": "https://assets.tcu.edu/cornerstone/images/icons/marker.svg",
            "text": "<strong>80%</strong> of graduates teach locally"
          }
        ]
      }
    }
  ]
}
