{
  "tags": [""],
  "status": "in-progress",
  "meta": {
    "scripts": ["/js/tcu-sidebar-menu.min.js"]
  },
  "context": {
    "arrow_svg": "<svg focusable=\"false\" height=\"16\" width=\"16\" viewBox=\"-77 10 20 11\"><path d=\"M-58.7 10.3l-8.3 8.3-8.3-8.3c-.4-.4-1-.4-1.4 0-.4.4-.4 1 0 1.4l9 9c.4.4 1 .4 1.4 0l9-9c.4-.4.4-1 0-1.4-.4-.4-1-.4-1.4 0z\"></path></svg>"
  }
}
