{
  "tags": ["ou-component"],
  "hidden": true,
  "label": "Overview + Explore",
  "context": {
    "full_width_photo": "https://assets.tcu.edu/cornerstone/images/Rec-Center-1000x400.jpg",
    "headline": "Recreational Facilities",
    "overview_text": "<p>Our popular rec center is 200,000 square feet of inspiration. Students love the weight rooms, cardio deck, climbing wall, pools, classrooms and hangout spots.</p>",
    "inset_photo": "https://assets.tcu.edu/cornerstone/images/recreation-facilities-320x320.jpg",
    "inset_photo_description": "Girl lifting weights at TCU rec center",
    "explore_more_links": "<ul><li><a href='https://campusrec.tcu.edu/facilities/'>University Recreation Center</a></li><li><a href='https://campusrec.tcu.edu/outdoor-center-and-climbing-wall-hours/'>Outdoor Center &amp; Climbing Wall</a></li><li><a href='https://campusrec.tcu.edu/facilities/hours-of-operation/'>Hours of Operation</a></li></ul>"
  }
}
