{
  "label": "Homepage Pull-Quote",
  "status": "complete",
  "tags": ["ou-component", "wordpress-block"],
  "context": {
    "hammerhead": "Preparing Global Citizens",
    "quote": "TCU gives you so many resources. The faculty isn’t intimidating—they’re more like guides.",
    "name": "Janae Jackson ’22",
    "title": "Political Science & CRES Major from Fort Worth",
    "major": "",
    "affiliation": "",
    "image": "https://assets.tcu.edu/cornerstone/images/Janae-Jackson.png",
    "imageAlt": "",
    "cta": {
      "text": "Be a Horned Frog",
      "link": "#"
    }
  },
  "variants": [
    {
      "name": "default",
      "label": "With Image"
    },
    {
      "name": "without-image",
      "label": "Without Image",
      "context": {
        "image": ""
      }
    }
  ]
}
