{
	"props": {
		"primary": {
			"value": "#4D1979",
			"type": "color",
			"category": "any"
		},
		"secondary": {
			"value": "#FED277",
			"type": "color",
			"category": "any"
		},
		"tertiary": {
			"value": "#FFF4DC",
			"type": "color",
			"category": "any"
		},
		"neutral_0": {
			"value": "#FFFFFF",
			"type": "color",
			"category": "any"
		},
		"neutral_20": {
			"value": "#EEEEEE",
			"type": "color",
			"category": "any"
		},
		"neutral_40": {
			"value": "#EEEEEE",
			"type": "color",
			"category": "any"
		},
		"neutral_60": {
			"value": "#767676",
			"type": "color",
			"category": "any"
		},
		"neutral_80": {
			"value": "#4D4D4A",
			"type": "color",
			"category": "any"
		},
		"neutral_100": {
			"value": "#000000",
			"type": "color",
			"category": "any"
		},
		"text-black": {
			"value": "#4D4D4A",
			"type": "color",
			"category": "any"
		},
		"warning_background": {
			"value": "#ebe16f",
			"type": "color",
			"category": "any"
		},
		"warning_border": {
			"value": "#ffcc00",
			"type": "color",
			"category": "any"
		},
		"emergency_background": {
			"value": "#fbe3e4",
			"type": "color",
			"category": "any"
		},
		"emergency_border": {
			"value": "#d0021b",
			"type": "color",
			"category": "any"
		},
		"safe_background": {
			"value": "#e6efc2",
			"type": "color",
			"category": "any"
		},
		"safe_border": {
			"value": "#90ac23",
			"type": "color",
			"category": "any"
		},
		"announcement_background": {
			"value": "#d5edf8",
			"type": "color",
			"category": "any"
		},
		"announcement_border": {
			"value": "#5aafee",
			"type": "color",
			"category": "any"
		}
	}
}
