{
  "tags": ["ou-component"],
  "context": {
    "modifier": "_white",
    "image": "https://assets.tcu.edu/cornerstone/images/freshman-icon.svg",
    "image_description": "",
    "title": "Media Card Title",
    "description": "Description",
    "primary_button_link": "#",
    "primary_button_text": "Button Text"
  },
  "variants": [
    {
      "name": "icon",
      "context": {
        "modifier": "_icon",
        "image": "https://assets.tcu.edu/cornerstone/images/address-icon.svg",
        "title": "Physical Address",
        "description": "3301 Bellaire Drive North Fort Worth, Texas 76109"
      }
    },
    {
      "name": "link icon",
      "context": {
        "modifier": "_icon-link",
        "image": "https://assets.tcu.edu/cornerstone/images/facebook-icon.svg",
        "title": "Facebook"
      }
    }
  ]
}
